%YAML 1.1
%TAG !u! tag:unity3d.com,2011:
--- !u!114 &11400000
MonoBehaviour:
  m_ObjectHideFlags: 0
  m_CorrespondingSourceObject: {fileID: 0}
  m_PrefabInstance: {fileID: 0}
  m_PrefabAsset: {fileID: 0}
  m_GameObject: {fileID: 0}
  m_Enabled: 1
  m_EditorHideFlags: 0
  m_Script: {fileID: 11500000, guid: 5beabfd6f0af41c2b1f61befccf92860, type: 3}
  m_Name: DefaultPopupServiceConfig
  m_EditorClassIdentifier: 
  usePrettyJsonFormat: 0
  popupContainerPrefab: {fileID: 2603539108374616308, guid: 06b862e1d3b016a41813c28fae593427,
    type: 3}
  popupSkinData: {fileID: 11400000, guid: 3c829cde559a1934b9d3d9366e0aa7a5, type: 2}
