{
    "name": "RedSunsetCore.Editor",
    "rootNamespace": "",
    "references": [
        "Zenject-Editor",
        "Zenject",
        "RedSunsetCore",
        "RedSunsetCore.CorePlugins.mtschoen",
        "RedSunsetCore.CorePlugins.SerializableDictionary",
        "Unity.InputSystem"
    ],
    "includePlatforms": [
        "Editor"
    ],
    "excludePlatforms": [],
    "allowUnsafeCode": false,
    "overrideReferences": false,
    "precompiledReferences": [],
    "autoReferenced": true,
    "defineConstraints": [],
    "versionDefines": [],
    "noEngineReferences": false
}