{
    "name": "RedSunsetCore",
    "rootNamespace": "",
    "references": [
        "RedSunsetCore.CorePlugins.mtschoen",
        "RedSunsetCore.CorePlugins.SerializableDictionary",
        "Unity.TextMeshPro",
        "Zenject",
        "IngameDebugConsole.Runtime",
        "Unity.InputSystem"
    ],
    "includePlatforms": [],
    "excludePlatforms": [],
    "allowUnsafeCode": true,
    "overrideReferences": true,
    "precompiledReferences": [
        "Zenject-usage.dll",
        "Newtonsoft.Json.dll",
        "Unity.Tasks.dll"
    ],
    "autoReferenced": true,
    "defineConstraints": [],
    "versionDefines": [],
    "noEngineReferences": false
}