%YAML 1.1
%TAG !u! tag:unity3d.com,2011:
--- !u!114 &11400000
MonoBehaviour:
  m_ObjectHideFlags: 0
  m_CorrespondingSourceObject: {fileID: 0}
  m_PrefabInstance: {fileID: 0}
  m_PrefabAsset: {fileID: 0}
  m_GameObject: {fileID: 0}
  m_Enabled: 1
  m_EditorHideFlags: 0
  m_Script: {fileID: 11500000, guid: 3790e75cccbf54b40ad1ee173ee8f1f3, type: 3}
  m_Name: AssetsServiceInstaller
  m_EditorClassIdentifier: 
  assetsConfig: {fileID: 11400000, guid: a836305b817fdf24a95b264c09a3b54c, type: 2}
  defaultServiceType: None
