%YAML 1.1
%TAG !u! tag:unity3d.com,2011:
--- !u!114 &11400000
MonoBehaviour:
  m_ObjectHideFlags: 0
  m_CorrespondingSourceObject: {fileID: 0}
  m_PrefabInstance: {fileID: 0}
  m_PrefabAsset: {fileID: 0}
  m_GameObject: {fileID: 0}
  m_Enabled: 1
  m_EditorHideFlags: 0
  m_Script: {fileID: 11500000, guid: d5e4c1b5daf84be091707d384dca9883, type: 3}
  m_Name: ConfigServiceInstaller
  m_EditorClassIdentifier: 
  coreFrameworkConfig: {fileID: 11400000, guid: 6d7b9b0da8019e04fa9c377424b2e1f4,
    type: 2}
