%YAML 1.1
%TAG !u! tag:unity3d.com,2011:
--- !u!114 &11400000
MonoBehaviour:
  m_ObjectHideFlags: 0
  m_CorrespondingSourceObject: {fileID: 0}
  m_PrefabInstance: {fileID: 0}
  m_PrefabAsset: {fileID: 0}
  m_GameObject: {fileID: 0}
  m_Enabled: 1
  m_EditorHideFlags: 0
  m_Script: {fileID: 11500000, guid: f6d2de7355804c9eb7ed8952a45540b7, type: 3}
  m_Name: DebugServiceInstaller
  m_EditorClassIdentifier: 
  defaultServiceType: RedSunsetCore.Services.DebugTools.DebugService
  debugLogManagerPrefab: {fileID: 11452418, guid: 67117722a812a2e46ab8cb8eafbf5f5e,
    type: 3}
