%YAML 1.1
%TAG !u! tag:unity3d.com,2011:
--- !u!114 &11400000
MonoBehaviour:
  m_ObjectHideFlags: 0
  m_CorrespondingSourceObject: {fileID: 0}
  m_PrefabInstance: {fileID: 0}
  m_PrefabAsset: {fileID: 0}
  m_GameObject: {fileID: 0}
  m_Enabled: 1
  m_EditorHideFlags: 0
  m_Script: {fileID: 11500000, guid: 8bf9fc68ec2d4923beb00d16a7481d62, type: 3}
  m_Name: TutorialServiceInstaller
  m_EditorClassIdentifier: 
  serviceConfig: {fileID: 11400000, guid: c57beee2f44e32e4f95241b3fd697fc2, type: 2}
  defaultOverlay: {fileID: 4010458598507943451, guid: 68c3354a34505bc4fa4785c4876c9cda,
    type: 3}
  serviceType: RedSunsetCore.Services.Tutorial.TutorialController
